<svg width="207" height="363" viewBox="0 0 207 363" fill="none" xmlns="http://www.w3.org/2000/svg">
<g filter="url(#filter0_b_164_188)">
<path fill-rule="evenodd" clip-rule="evenodd" d="M4.52888 358V4.48591C5.91774 4.48591 7.40303 4.51484 8.98476 4.5727C14.1033 4.75993 20.2316 5.25011 27.3697 6.04325C36.7137 6.73539 42.0779 7.08146 43.4622 7.08146C49.3454 7.08146 54.1904 6.90842 57.9972 6.56236C67.2584 5.70085 73.9058 5.10742 77.9395 4.78207C80.3873 4.58463 81.8726 4.48591 82.3954 4.48591V320.624C83.8958 320.624 85.3811 320.622 86.8513 320.617C107.084 320.551 124.46 320.035 138.978 319.067C153.93 318.092 173.155 316.353 196.654 313.852C198.175 313.69 199.715 313.525 201.272 313.357C201 314.853 200.728 316.376 200.455 317.926C200.035 320.319 199.615 322.776 199.195 325.296C198.849 329.449 198.676 332.91 198.676 335.678C198.676 338.101 199.022 341.735 199.714 346.58C200.09 349.206 200.414 351.528 200.688 353.544C200.919 355.247 201.113 356.732 201.272 358H4.52888ZM203.621 325.848C203.291 329.849 203.132 333.117 203.132 335.678C203.132 337.771 203.439 341.148 204.125 345.949C204.819 350.804 205.342 354.641 205.693 357.447L206.319 362.456H0.072998V0.0300293H4.52888C10.626 0.0300293 18.3934 0.564484 27.7801 1.60556C37.186 2.30197 42.2937 2.62558 43.4622 2.62558C49.2713 2.62558 53.9676 2.45418 57.5886 2.12525C72.2817 0.758461 80.7395 0.0300293 82.3954 0.0300293H86.8513V316.161C107.016 316.095 124.288 315.58 138.682 314.621L138.688 314.62C154.519 313.588 175.213 311.692 200.793 308.927L206.723 308.285L205.656 314.154C204.978 317.882 204.299 321.78 203.621 325.848Z" fill="white"/>
</g>
<defs>
<filter id="filter0_b_164_188" x="-33.3461" y="-33.3891" width="273.488" height="429.264" filterUnits="userSpaceOnUse" color-interpolation-filters="sRGB">
<feFlood flood-opacity="0" result="BackgroundImageFix"/>
<feGaussianBlur in="BackgroundImage" stdDeviation="16.7096"/>
<feComposite in2="SourceAlpha" operator="in" result="effect1_backgroundBlur_164_188"/>
<feBlend mode="normal" in="SourceGraphic" in2="effect1_backgroundBlur_164_188" result="shape"/>
</filter>
</defs>
</svg>
