<svg width="198" height="354" viewBox="0 0 198 354" fill="none" xmlns="http://www.w3.org/2000/svg">
<g filter="url(#filter0_b_13_2)">
<path d="M78.3954 316.624H73.9395V321.08H78.3954V316.624ZM134.978 315.067L134.688 310.62L134.682 310.621L134.978 315.067ZM197.272 309.357L201.656 310.154L202.723 304.285L196.793 304.926L197.272 309.357ZM195.195 321.296L190.8 320.564L190.77 320.744L190.755 320.926L195.195 321.296ZM195.714 342.58L200.125 341.949L195.714 342.58ZM197.272 354V358.456H202.319L201.693 353.447L197.272 354ZM0.528828 354H-3.92706V358.456H0.528828V354ZM0.528828 0.485863V-3.97002H-3.92706V0.485863H0.528828ZM23.3697 2.04321L22.8776 6.47183L22.9589 6.48087L23.0405 6.48692L23.3697 2.04321ZM53.9972 2.56231L54.4006 6.9999L54.4099 6.99904L53.9972 2.56231ZM78.3954 0.485863H82.8512V-3.97002H78.3954V0.485863ZM78.3954 321.08C100.606 321.08 119.572 320.56 135.275 319.513L134.682 310.621C119.239 311.65 100.482 312.168 78.3954 312.168V321.08ZM135.268 319.513C151.277 318.469 172.111 316.558 197.751 313.787L196.793 304.926C171.213 307.692 150.519 309.588 134.688 310.62L135.268 319.513ZM192.888 308.559C192.191 312.389 191.495 316.391 190.8 320.564L199.59 322.029C200.279 317.895 200.968 313.937 201.656 310.154L192.888 308.559ZM190.755 320.926C190.403 325.147 190.22 328.741 190.22 331.678H199.132C199.132 329.078 199.295 325.751 199.636 321.666L190.755 320.926ZM190.22 331.678C190.22 334.43 190.605 338.321 191.303 343.21L200.125 341.949C199.439 337.148 199.132 333.771 199.132 331.678H190.22ZM191.303 343.21C191.994 348.045 192.509 351.822 192.85 354.553L201.693 353.447C201.342 350.641 200.819 346.804 200.125 341.949L191.303 343.21ZM197.272 349.544H0.528828V358.456H197.272V349.544ZM4.98471 354V0.485863H-3.92706V354H4.98471ZM0.528828 4.94175C6.18055 4.94175 13.613 5.44242 22.8776 6.47183L23.8618 -2.38542C14.4384 -3.43246 6.6436 -3.97002 0.528828 -3.97002V4.94175ZM23.0405 6.48692C32.2708 7.17063 37.8653 7.53729 39.4621 7.53729V-1.37447C38.2903 -1.37447 33.1565 -1.69994 23.6988 -2.40051L23.0405 6.48692ZM39.4621 7.53729C45.4167 7.53729 50.4087 7.36279 54.4006 6.99989L53.5938 -1.87527C49.9721 -1.54604 45.274 -1.37447 39.4621 -1.37447V7.53729ZM54.4099 6.99904C61.8467 6.30724 67.5865 5.7894 71.6355 5.44481C73.6612 5.2724 75.2519 5.14438 76.415 5.05978C76.9972 5.01744 77.4602 4.98688 77.8106 4.96713C77.9856 4.95728 78.1239 4.95061 78.2296 4.9465C78.2821 4.94447 78.3225 4.94321 78.3525 4.9425C78.3834 4.94176 78.3965 4.94175 78.3954 4.94175V-3.97002C76.7393 -3.97002 68.2801 -3.24146 53.5845 -1.87442L54.4099 6.99904ZM73.9395 0.485863V316.624H82.8512V0.485863H73.9395Z" fill="white"/>
</g>
<defs>
<filter id="filter0_b_13_2" x="-32.8903" y="-32.9333" width="263.581" height="420.352" filterUnits="userSpaceOnUse" color-interpolation-filters="sRGB">
<feFlood flood-opacity="0" result="BackgroundImageFix"/>
<feGaussianBlur in="BackgroundImage" stdDeviation="16.7096"/>
<feComposite in2="SourceAlpha" operator="in" result="effect1_backgroundBlur_13_2"/>
<feBlend mode="normal" in="SourceGraphic" in2="effect1_backgroundBlur_13_2" result="shape"/>
</filter>
</defs>
</svg>
