<svg width="57" height="12" viewBox="0 0 57 12" fill="none" xmlns="http://www.w3.org/2000/svg">
<g clip-path="url(#clip0_790_165)">
<path d="M56.7091 5.28378C55.0477 3.62162 53.3863 1.95946 51.7249 0.297297C51.5156 0.0878378 51.2792 0 51.0496 0C51.0361 0 51.0226 0 51.0091 0C50.9956 0 50.9821 0 50.9685 0C50.7389 0 50.5025 0.0810811 50.2932 0.297297C48.8412 1.75 47.3892 3.2027 45.9371 4.65541C45.8899 4.65541 45.8426 4.65541 45.7886 4.65541C45.1402 4.65541 44.4851 4.65541 43.8368 4.65541C38.7243 4.65541 33.6119 4.65541 28.4995 4.65541C23.387 4.65541 18.2746 4.65541 13.1621 4.65541C12.5813 4.65541 11.9938 4.65541 11.413 4.65541C11.2509 4.65541 11.1361 4.64865 11.0415 4.63514C9.59627 3.18919 8.15101 1.74324 6.70575 0.297297C6.31404 -0.0945946 5.6657 -0.0945946 5.274 0.297297C3.61262 1.95946 1.95125 3.62162 0.289873 5.28378C-0.101833 5.67568 -0.101833 6.32432 0.289873 6.71622C1.95125 8.37838 3.61262 10.0405 5.274 11.7027C5.6657 12.0946 6.31404 12.0946 6.70575 11.7027C8.15776 10.25 9.60978 8.7973 11.0618 7.34459C11.1091 7.34459 11.1563 7.34459 11.2104 7.34459C11.8587 7.34459 12.5071 7.34459 13.1621 7.34459C18.2746 7.34459 23.387 7.34459 28.4995 7.34459C33.6119 7.34459 38.7243 7.34459 43.8368 7.34459C44.4176 7.34459 45.0052 7.34459 45.586 7.34459C45.748 7.34459 45.8629 7.35135 45.9574 7.36486C47.4027 8.81081 48.8479 10.2568 50.2932 11.7027C50.6849 12.0946 51.3332 12.0946 51.7249 11.7027C53.3863 10.0405 55.0477 8.37838 56.7091 6.71622C57.1008 6.32432 57.1008 5.67568 56.7091 5.28378ZM5.99663 8.60135C5.13217 7.73649 4.26772 6.87162 3.39651 6C4.26096 5.13514 5.12542 4.27027 5.99663 3.39865C6.59769 4 7.20551 4.60135 7.80658 5.20946C8.10374 5.50676 8.34686 5.77703 8.58999 6C7.72554 6.87162 6.86108 7.73649 5.99663 8.60135ZM10.8997 4.61486C10.7916 4.59459 10.8119 4.58108 10.8997 4.61486V4.61486ZM46.0992 7.38514C46.2073 7.41216 46.1938 7.42568 46.0992 7.38514V7.38514ZM51.0091 8.60135C50.1514 7.74324 49.2937 6.88514 48.436 6.02703C48.7534 5.72973 49.0438 5.37162 49.3342 5.08108C49.8947 4.52027 50.4485 3.96622 51.0091 3.40541C51.8735 4.27027 52.7447 5.13514 53.6092 6.00676C52.738 6.86487 51.8735 7.73649 51.0091 8.60135Z" fill="#C7C7C7"/>
</g>
<defs>
<clipPath id="clip0_790_165">
<rect width="57" height="12" fill="white"/>
</clipPath>
</defs>
</svg>
