<svg width="80" height="52" viewBox="0 0 80 52" fill="none" xmlns="http://www.w3.org/2000/svg">
<path d="M74.5872 52H5.41277C2.43404 52 0 49.6235 0 46.6986V5.28476C0 2.37648 2.43404 0 5.41277 0H74.5702C77.566 0 80 2.37648 80 5.28476V46.6986C80 49.6235 77.566 52 74.5872 52ZM5.41277 1.66187C3.37021 1.66187 1.70213 3.29051 1.70213 5.28476V46.6986C1.70213 48.6929 3.37021 50.3215 5.41277 50.3215H74.5702C76.6128 50.3215 78.2809 48.6929 78.2809 46.6986V5.28476C78.2979 3.29051 76.6298 1.66187 74.5872 1.66187H5.41277Z" fill="#005DA6"/>
<path d="M79.1489 36.8604H0.851064C0.374468 36.8604 0 36.4947 0 36.0294V24.0972C0 23.6318 0.374468 23.2662 0.851064 23.2662H79.1489C79.6255 23.2662 80 23.6318 80 24.0972V36.046C80 36.4947 79.6255 36.8604 79.1489 36.8604ZM1.70213 35.1985H78.2979V24.9281H1.70213V35.1985Z" fill="#005DA6"/>
<path d="M69.0893 13.777H56.5787C56.1021 13.777 55.7276 13.4114 55.7276 12.946C55.7276 12.4807 56.1021 12.1151 56.5787 12.1151H69.0893C69.5659 12.1151 69.9404 12.4807 69.9404 12.946C69.9404 13.4114 69.5659 13.777 69.0893 13.777Z" fill="#005DA6"/>
<path d="M25.9404 16.8181H12.2723C11.7957 16.8181 11.4213 16.4525 11.4213 15.9872V8.29273C11.4213 7.8274 11.7957 7.46179 12.2723 7.46179H25.9404C26.417 7.46179 26.7915 7.8274 26.7915 8.29273V15.9872C26.7915 16.4525 26.4 16.8181 25.9404 16.8181ZM13.1234 15.1563H25.0894V9.12366H13.1234V15.1563Z" fill="#005DA6"/>
</svg>
