<svg width="14" height="14" viewBox="0 0 14 14" fill="none" xmlns="http://www.w3.org/2000/svg">
<path d="M12.5253 11.4389V7.16295C12.5253 6.86546 12.4639 6.5711 12.3449 6.29789C12.2258 6.02469 12.0516 5.77839 11.8328 5.57409L7.75829 1.76696C7.55307 1.57514 7.28138 1.46826 6.99897 1.46826C6.71656 1.46826 6.44487 1.57514 6.23966 1.76696L2.1651 5.57409C1.94639 5.77839 1.77216 6.02469 1.65309 6.29789C1.53402 6.5711 1.47262 6.86546 1.47266 7.16295V11.4389C1.47266 11.7287 1.5891 12.0066 1.79638 12.2116C2.00366 12.4165 2.28479 12.5316 2.57792 12.5316H11.42C11.7132 12.5316 11.9943 12.4165 12.2016 12.2116C12.4088 12.0066 12.5253 11.7287 12.5253 11.4389Z" fill="white"/>
<path fill-rule="evenodd" clip-rule="evenodd" d="M5.91533 1.42665C6.20848 1.15266 6.59659 1 7 1C7.40341 1 7.79152 1.15266 8.08467 1.42665C8.08469 1.42667 8.08465 1.42663 8.08467 1.42665L12.1592 5.23373C12.4248 5.48181 12.6363 5.78088 12.7809 6.11263C12.9255 6.44437 13 6.80179 13 7.16301C13 7.16302 13 7.16299 13 7.16301V11.4389C13 11.853 12.8336 12.25 12.5375 12.5428C12.2414 12.8355 11.8398 13 11.4211 13H2.57895C2.16018 13 1.75857 12.8355 1.46246 12.5428C1.16635 12.25 1 11.853 1 11.4389L1 7.16306C1 7.16304 1 7.16307 1 7.16306C0.999968 6.80184 1.07452 6.44437 1.2191 6.11263C1.36367 5.7809 1.57521 5.48185 1.84078 5.23378M1.84078 5.23378L5.91533 1.42665C5.91535 1.42663 5.91531 1.42667 5.91533 1.42665M7 1.93664C6.83862 1.93664 6.68337 1.99771 6.56611 2.10732L2.49149 5.91452C2.31964 6.07504 2.18269 6.26861 2.08914 6.48327C1.99558 6.69793 1.94734 6.92922 1.94737 7.16296V11.4389C1.94737 11.6045 2.01391 11.7634 2.13235 11.8805C2.2508 11.9976 2.41144 12.0634 2.57895 12.0634H11.4211C11.5886 12.0634 11.7492 11.9976 11.8676 11.8805C11.9861 11.7634 12.0526 11.6045 12.0526 11.4389V7.16301C12.0527 6.92927 12.0044 6.69793 11.9109 6.48327C11.8173 6.26861 11.6804 6.07509 11.5086 5.91457L7.43396 2.10738C7.31669 1.99777 7.16138 1.93664 7 1.93664Z" fill="#231F20" fill-opacity="0.5"/>
</svg>
